:20A000004CF1A04C73A14CE9AB4544FE4954FF434FFE5059FF43455252464C4147FEFF4342
:20A02000FE4154414C4F47FF44454CFE455445FF5041555345FEFF52454DFE41524BFF532E
:20A0400049FE4EFF454E544552FEFF455343415045FEFF45FE584543FF58434D44FEFF58A0
:20A0600044FEFF585251FEFF4C4F474F4EFEFF4C4F474F4646FEFF44415445FEFF54494D6C
:20A0800045FEFF5343FE4F5059FF535441FE545553FF444546FE494E45FF4449FE534D4FF0
:20A0A000554E54FF4DFE4F554E54FFFF010000000000000000000100000001010000000017
:20A0C000000000A6ACF0AA1DAB42A8A6AA00AB15AB31AB87AD3DAECBAC31AF7AAE0EAF3EB2
:20A0E000A15BA1C2A12AA269A2F6A2B5A4BEA703A5009609A05006A9A02C00FC60AABCAC13
:20A10000A00AAABDC3A085F6BDC4A085F7C000F015AE1102BD0701C9809005BD0201F006D4
:20A12000A9A22C00FC600011700AC920D0C9A920001250FAB86CF600A9208DA00460ADA059
:20A1400004C920F0062C00FCA9A260A2080097A00470E5001B70E1203C8060205EAF001B1F
:20A160005003A9A1602073A1CE3CF40004A2FF9A4C2180AD0402AC05020043AD0202AC037B
:20A180000200432C07027008AD0002AC0102004300B10000AD00F4CD0702D005A9008D00F9
:20A1A000F4A9048D5E02A977A0F4203980AD5E02A2FF202480CE5E0210EC0037A9208DA0BB
:20A1C0000460A90A2001A250062C00FCA9A160A92DCD6202D0F3CD6502D0EEA9308D6202F7
:20A1E0008D6502A2092016A270DFA92D8D62028D6502A20978BD5E029D24F4CA10F758B808
:20A20000608D7202A2000011700B9D5E02E8EC7202D0F3001B60BD5E02C9309009C93AB0CA
:20A2200005CA10F2B8602C00FC60A9082001A250062C00FCA9A160A93ACD6002D0F3CD630C
:20A2400002D0EEA9308D60028D6302A2072016A270DFA93A8D60028D6302A20778BD5E02B2
:20A260009D2EF4CA10F758B860205EAF206DAF2C07025003A91260A2010030701D85F48475
:20A28000F5A000A94391F4A5F4A4F5A2020018500AA20100312C00FCA9A160001B70F28DC0
:20A2A0005E028C5F02AD0002AC01020043AD0002AC0102A2010031AD5E02AC5F028D0002D5
:20A2C0008C010285F484F5A041A9D191F4C8A90291F4A5F4A4F5A202004250188D5E02A018
:20A2E00040A90091F4A5F4A4F5A2020042AD5E022C00FC60B860205EAF206DAF001B500354
:20A30000A9A160204880A920AC23F4F002A953ACAA04F002A9500021002620555345522D19
:20A3200049442020204D454D20205052494E5445522020454E544552202055534552202070
:20A3400044415445202020202020202054494D452020202020205359532D4D454D4F5259EB
:20A360002020434841D220458050034C0FA4204880002620A0A20800B5A004002620A0AD64
:20A380003A02002300264BA0AD00F42010A4002BAD22F42010A4AD3CF4002D002620202086
:20A3A00020A00029002620A00028002620A0ADE9F3A0000006C000F002A99900230026252F
:20A3C00020465245C50026202020A0ADAB040021204580204880204580204880A2010026B5
:20A3E00020204452495645A08A002D002BE8E00690EC204580204880002620A0A2008E5E96
:20A4000002202AA4AE5E02E8E00590F220458060C900F00B002620425553592020A060001D
:20A420002620465245452020A0608A0A0A0AA8BDBA04C920D021B900F7C920F00D00262DE6
:20A440002D2D2D2D2D2D2D20A0600026202020202020202020A060C92AD025B900F7C925D5
:20A46000D0110026AAA208B928F70021C8CAD0F7002B6000262A2A2A2A2A2A2A2A20A0600E
:20A48000A208B900F70021C8CAD0F7002620A0602454FE45524DFF2450FE52494E54455203
:20A4A000FF434841523DFEFF504152414D3DFEFFFF0CA00FA0205EAF206DAF009690A450BD
:20A4C00003A9A1608D5E02C902F020C903F028001B5006A92C001270E8AD5E020AAABDB243
:20A4E000A4A8BDB1A4A201201E8060001170D2001B70CE8DAB0460001170C6001B70C28DD4
:20A50000480260205EAF206DAFA9008DCF04A977A0F42039802093A7706DA92C001270679D
:20A52000A92A001250034C21A68D5E02A9008D6607001B5012A92C0012704CA20800976679
:20A54000077044001B7040208FA6703D206DA7503BC9C3F00BC9F4F007C9F5F0034C89A54E
:20A56000AD6607F005A9F74C89A5A921ACC1049900F7AEBF04A92A9DBA04AD50F49D9CF42A
:20A58000A9008D77F4B860A9A14CCCA520A8A7AD6607D005A9224C89A5C940D005ADAA041F
:20A5A000D00FA207A007B1F6DD6607D0E788CA10F520A8A7A200ACC104BD66079928F7C841
:20A5C000E8E00890F4A9254C6CA5A9A18D6707AEBF04BD50F7D021A95FA0F420398078A9BB
:20A5E000808D04F8AEBF041D11FC8D04F829F68D04F858A9008D5FF4AD07028D6507A90845
:20A600008D0702ADCE04ACCF04F004A2050031AD65078D0702A9008D77F4AD67072C00FC47
:20A6200060A208A20800975E02709F001B709B208FA67098AEC104BD00F7C920F01B20445E
:20A64000A7A941AEBF049DBA04FE50F7AD50F49D9CF4A9008D77F4B860206DA7702E20A8E7
:20A66000A7A207A007B1F6DD5E02D01E88CA10F52044A720A8A7A200ACC104BD5E02990077
:20A68000F7C8E8E00890F44C41A6A9224CCCA5AEBF04BDBA04C920F0062C00FCA9C060AC84
:20A6A000C104B900F7C920F018A200BD5E02D900F7D008C8E8E00890F2B860A9222C00FCA8
:20A6C00060AD07028D6507A9088D0702A2050030AE65078E07025001608DCE048CCF04AE7F
:20A6E000C0049D55F7989D56F7ADCE049D82F7ADCF049D83F7FE83F7FE83F718D8ADCE04A0
:20A7000069709D5FF7ADCE0469309D6EF7ADCF049D60F79D6FF7BD82F79D78F785F6BD83DF
:20A72000F79D79F785F7A07DA90091F68810FBA048ADBF0491F6A901A04591F6A902A02D4C
:20A7400091F6B86020A8A7A01B2083A7A02B2083A7A01D2083A7D003C891F6A02BF818B11C
:20A76000F6690191F6C8B1F6690091F660EE50F4A918A0A0A201201E80C901F0042C00FCB9
:20A7800060B860B1F6C9E5D009A90091F6C8A90091F660A900A201001F488DBF040A8DC031
:20A7A000040A0A8DC1046860AEC004BD55F785F6BD56F785F7602C4B494C4CFEFFFF205EB9
:20A7C000AF206DAFA977A0F42039802093A7500BA9A12C00FCA2008E77F460001B7006A2AC
:20A7E00000202480608DBF040096B6A770E2001B70DEADBF04A2FF20248060202046494CE7
:20A80000454E414D4520204552524F5220534543544F5220204D4F554E542020202056452A
:20A820005223205345435420464952535420555345522020202020204C415354205553454C
:20A8400052FF205EAF206DAFA24300981C065006A9A12C00FC60001B70F6A91CA00685F80E
:20A8600084F920278070EBAD64061005A9214C52A88D5E020A8D6302204880A020AE5E025E
:20A88000BD97F4F002A0529800210026204452495645A0AE5E02E88A002D204580204880F9
:20A8A00000A2FBA7204580204880AE6302BD55F785F4BD56F785F5002620A0A000B1F40043
:20A8C00021C8C00890F7002620A0A01CB1F4002388B1F40023002620A0A01FB1F400238891
:20A8E000B1F4002388B1F40023002620A0A02CB1F4002388B1F40023A920A20A002CA9002C
:20A90000203AAA0025002BA0102084AA002BA0202084AA20458000075005A9024C28A9AEF5
:20A920005E0200D11C055009C902F0034C52A8B860A91CA00585F484F5A9048D6102A000B7
:20A94000B1F4C920D0034C0CAAA020B1F48D6802A92091F4AD1C06C920F028AD8B0630317B
:20A96000A000B1F42033AAF01DD91C06F010B91C06C920D0D1AD8B064AB0084C46A9C8C025
:20A980002090DF4CC9A9B91C062033AAF0F54C0CAAA9208D3C06A000A2008C6F07B1F4DD4D
:20A9A0001C06F00EAC6F07C8B1F42033AAD0E94C0CAAC8E8BD1C062033AAD0E1AD8B064A6B
:20A9C000B007B1F42033AAD0DBA020AD680291F4204880002620A0A000B1F40021C8C0203B
:20A9E000D0F7002BA02BB1F4AAC8B1F4A88A0025002BA02DB1F4203AAA0025002BA02020B6
:20AA000084AA002BA0302084AA20458018D8A5F4694085F4A5F5690085F5CE6102F0034C42
:20AA20003EA918D8AD5E0269088D5E02B0034C16A9B860C920F002C93B608D6202AE6302BB
:20AA4000BD5FF785F6BD60F785F7A9008D64028D6502A0002069AAD0FBE6F72069AAC0904A
:20AA600090F9AD6402AC650260B1F6CD6202D01218F8AD640269018D6402AD650269008D83
:20AA80006502C860A208B1F40021C8CAD0F8002BB1F4C80023B1F4C80023B1F40023602CBE
:20AAA000414C4CFEFFFF205EAF206DAFA2C100981C065006A9A12C00FC60AD5C06C903D068
:20AAC000F3AD6406C9FED006A9D22C00FC60001B5019AD4706C9FFD0DB00969FAA70D5A90E
:20AAE000008D47068D4806001B70C900DB1C0660205EAF206DAFA912A0A0A201201E8060CB
:20AB0000205EAF206DAFAD3602C901F0060004000750FAB860205EAF206DAFB860205EAF0C
:20AB2000001B5006A9A12C00FC60A9008D3902B860205EAF206DAFA202003085F484F570AA
:20AB400012A000A94991F4A5F4A4F5A20100185010A9A148A202A5F4A4F500312C00FC6856
:20AB60006020E9AB70ED85F684F7A040B1F4C903D0DFA080A95291F4A065AD040291F4C8C9
:20AB8000AD050291F4C8AD370291F4C8AD380291F4C8AD360291F4C8AD480291F4C8AD49E1
:20ABA0000291F4C8AD4A0291F4A5F4A4F5A201004270A08D04028C0502A5F6A4F78D49026D
:20ABC0008C4A02A921C000D002A9FF8D480218D8AD040269808D3702AD050269008D38028C
:20ABE000A040B1F48D3602B860001B7005B8A900A860A201003050016085F684F7A9008D4A
:20AC00005E02A9148D5F02A92C0012500EA5F6A4F7A2010031A9A12C00FC60AD5E02C9141E
:20AC2000B055A92C00125046C90DF042A22000971C065008A22000991C0670D18E6002AC5D
:20AC40005E028A91F6C8AD5F0291F6A888A200EC6002F00CC830B6BD1C0691F6E84C4FACC7
:20AC6000C88C5F02A92C00125004C90DD09FEE5E02EE5E024C1BAC001B7092A5F6A4F7B8E5
:20AC8000604544FE4954FF415353FE454D42FFFF020300B000A045444954202020204153EB
:20ACA00053454D422020205EAF206DAFAD90AC85F6A90085F7AD92ACAC93AC85F484F50073
:20ACC0001B5034A9200012702E50F8205EAF206DAF009681AC7044AABD90AC85F68A0A85FD
:20ACE000F7AABD92AC85F4BD93AC85F52077AD5006A9A12C00FC600004A2FF9AA5F70A0A6E
:20AD0000AAA000BD96AC991802E8C8C00890F4A5F4A4F5A6F6201E804C18ADA21100B41C1B
:20AD20000570D02077AD70C9A9FF8DC605A9008DC705A9088DC805AE1602CA8ECA05A9FFAF
:20AD40008DC905008C1C0570AA0004A2FF9AA200BD1E059D1802E8E00890F5ADCC05ACCD0D
:20AD60000585F684F7AE6405ADF0F829CF8DE8F38DF0F88A6CF600001B500A0011C92CF000
:20AD8000042C00FC60B860205EAF206DAF78AD22F4F00758A9102C00FC60A9FF8D22F45838
:20ADA000A20C003050034C34AE8D40F48C41F485F684F7AD9C044885F4AD9D044885F5A0FE
:20ADC00053B1F4997E0288D0F8A97EA0028D9C048C9D04A900A00285F484F5A202A000B1BD
:20ADE000F491F6C8D0F9E6F5E6F7E8E00890F0A9008D3FF4A9FF8D42F4A9008D3EF400857E
:20AE000042F4AD43F48D7F02A20CAD40F4AC41F400316885F58D9C046885F58D9D04A001A9
:20AE2000B97E0291F4AD42F4C901D008AD07028D44F4B860A2008E22F42C00FC60205EAF41
:20AE4000206DAF001B5006A9A12C00FC602C07025004A912D0F3AD3602C901F004A908D048
:20AE6000E8AD44F4CD0702F004A9A2D0DCA9FF8D3FF4B8602C00FCA9A1602023AFA2FF005F
:20AE8000956E0270EF001B70EBAD6E0229F08DF400AD6F028DF500A000B1F4995E02C8C0BB
:20AEA0001090F6204880002620A0ACF500ADF40000250026203AA0A200BD5E020023002B9A
:20AEC000E88A2903D002002B8A290FD0EC002BA200BD5E020021E8E010D0F620458018D8DB
:20AEE000ADF40069108DF400ADF50069008DF500ADF4000DF500F0140007701038D8AD70CF
:20AF000002EDF400AD7102EDF500B08BB860205EAF2023AF001B5006A9A12C00FC60003265
:20AF200070F860ADAA04F001606868A9A02C00FC60001B700CA9008DAA04A9A02C00FC18F8
:20AF400060A20800995E0270F1A207BD07FFDD5E02D0E7CA10F5A9FF8DAA044C3AAFADA0F9
:20AF600004C920F001606868182C00FC60AD3902D001606868A9062C00FC1860FFFFFFFFEF
:20AF8000FFFFFFFFFFFFFFFFFFFFFFFFFFFFFFFFFFFFFFFFFFFFFFFFFFFFFFFFFFFFFFFFD1
:20AFA000FFFFFFFFFFFFFFFFFFFFFFFFFFFFFFFFFFFFFFFFFFFFFFFFFFFFFFFFFFFFFFFFB1
:20AFC000FFFFFFFFFFFFFFFFFFFFFFFFFFFFFFFFFFFFFFFFFFFFFFFFFFFFFFFFFFFFFFFF91
:20AFE000FFFFFFFFFFFFFFFFFFFFFFFFFFFFFFFFFFFFFFFFFFFFFFFFFFFFFFFFFFFFFFF080
:20B000004C16B1404CFEFF43FEFF50FEFFFF41FE4C4CFFFF414F564552464C4F57202840F6
:20B0200052454E20312C3120415353554D4544A9424E4F5420534156454420285553452087
:20B040004051552C2040575249204F52204044454C20414C4CA9434C494E4523204F56455C
:20B0600052464C4FD7FF533AFEFF45FE4E44FF50FEFF44454CFE455445FF535441FE5455DD
:20B0800053FF49FE4E53455254FF44FE4953504C4159FF52454EFE554D424552FF4DFE4F82
:20B0A00044494659FF46494C45FEFF4649FE4E44FF4348FE414E4745FF4CFE415354FF57FF
:20B0C0005249FE5445FF4F56FE45525752495445FF524541FE44FF5155FE4954FF48FE4597
:20B0E0004C50FFFF46B498B4BEB433B58DB40FB4BEB470B5F1B5FABC63BBB0BB1EB642BDC3
:20B100003DBDADBD15BD52B40008060983080609060900000000A9008D5909A9038D010859
:20B12000A9538D0609A956A00A8519841A85178418851F8420A90D8D550AA9008534854049
:20B1400000824100A45288A97F851B841C205BBA00262020657336352D454449542056455A
:20B1600052532E422E362E35204F4EA000290026204154A000282068BAA9498527A9008DB4
:20B180003B00A910A000851D841E85258426A91F8D560A001D001B503D20AEBA500C4CA336
:20B1A000B1A9A12077BAA9060001001B70F320DABAA9008D35008D3600A9998D37008D3868
:20B1C00000A9FF8D3E002051BF70D8A9008D34002031B84C23B6AD3B00F00B205BBA20684C
:20B1E000BAA9008D3B00A94B8D0008008241002001B8A247008908B15002000100824100BE
:20B20000A551D002854000900008A940001C8504A558001270034C88B3A540F008A90620C6
:20B2200077BA4CD6B1A9FF8534A504F00B2026B350062077BA4CD6B1A527C949D0034CC9CC
:20B24000B2A504D019A51FA420850884098500840120B6B7850284032062B64CAEB2A533A7
:20B26000C504F038901F38D8A533E504852B18A51F8500652B8502A52085016900850320D9
:20B2800062B64C9CB2D838A504E5338504A9008505A51FA4208506840720E0B6A51F8508CA
:20B2A000A520850920E0B920B6B7851F8420A000B11FC91FD0034C23B6851EC8B11F851D80
:20B2C0004CD6B1204DB34CD6B1A504F0F9A203B51D9D2100CA10F8204DB3A94B8D830820C3
:20B2E0005BBAA5270021002BA51DA41E0025002BA2C600890CB150020001A003B921009936
:20B300001D008810F7AD040020E0B9204DB3A20000890CB150020001A283BD82089DFF07AD
:20B32000CAD0F74CFCB1D81865176902852DA9006518852E38A52DE51BA52EE51C900C00A7
:20B34000327009D838E901851C8552B860A9008D140018F8A51D65258531A51E6526853257
:20B360009010A9438D14002077BAA51D8531A51E8532A8A5312045B7851F8420A531A432CF
:20B38000851D841E2C140060A540F013001DA945001270034C98B4A9062077BA4CD6B1A93D
:20B3A000FF8D3B00A527C94DD008A9018525A9008526001DA901A000850C840D001B700947
:20B3C000A527C949D05A4CF5B5A9498527AD0108853C009666B070370AAABDE4B08508BDB8
:20B3E000E5B08509E000F024E004D00CA557D008A53C8D01084C0FB400117010C920F006AC
:20B400002C03B02039B4A920001250FA6C080020A0B82039B4A50E851DA50F851E2035B76A
:20B42000A50C8525A50D8526A9498527AD1E00C91FD0034C23B64CD6B17001606868A9A14D
:20B440002077BA4CD6B1A2FF000350032077BA4CD6B1001B2039B400A000080010002700A6
:20B4600026434F20313A482E454449D4A900001C00035016C921F004C9B0D032EE0608AD3D
:20B480000608C93690E6A9B0D0244CD6B1001B2039B42031B84CD6B1001B2039B4A551D017
:20B4A00013A534F00FAD560AC91FF008A9422077BA4CD6B1A901A640F002A9060001A9FFCB
:20B4C0008D3D002071B92039B4001B2039B4200FBB2028B5B004000750034CD6B120E3B4A4
:20B4E0004CD1B4205BBAA000B108C51ED00EC8B108C51DD00700262AA04C00B5002B002BAB
:20B50000A001B108AA88B108A88A0025002BA00020D4B720D4B7B108C90DF00500214C136A
:20B52000B520D4B72068BA60D838A508E502A509E50360001B70062C03B02039B4A9008DBC
:20B540003D002071B92039B4001B2039B4A9FF85342062B6AD560AC91FF0034CD6B1A90032
:20B560008D59090033D838E901851C85524C23B6A910850E850CA900850F850D001B502FCC
:20B58000A904001A2039B4850E840F850C840D0011701CC92CF0062C03B02039B4A904006E
:20B5A0001A70F4850C840D050DF0EC001B70E820ADB7A000B108C91FF030A50F9108C8A5EB
:20B5C0000E910820B6B718F8A50E650C850EA50F650D850F90DCA9412077BAA901A0008540
:20B5E0000E840F850C840D4CAFB5A9FF85344C23B6001B700FA94D8527A51FA4208508847D
:20B60000094CAEB220ECB82039B4001B2039B4A24D8627851F8420850885094CAEB2001BB6
:20B620002039B4A9498527A517A418C519D00DC41AD009A900851D851E4C57B688852D8470
:20B640002EA0FEB12DC90DF004884C43B6C8B12D851EC8B12D851DA9108525A90085264C15
:20B66000C3B2A500A401852D842EA502A403852F8430A000B12F912DC91FF00AC8D0F5E65E
:20B680002EE6304C74B618D898652D8517A900652E851838A500E51FA501E520B02438A524
:20B6A00002E51FA503E520901AA500A401851F8420A527C94DD00BA001B11F851D88B11F73
:20B6C000851E6038A502E500852DA503E501852E38A51FE52D851FA520E52E85204CB1B6CE
:20B6E000D818A517852D6504852F8517A518852E650585308518A000B12D912FA52DD00225
:20B70000C62EC62DA52FD002C630C62F38A506E52DA507E52E90E1B12D912FD838A506E54E
:20B720001FA507E520B00D18A51F6504851FA5206505852060A51DA41E850A840B2074B772
:20B74000851F842060850A840BC51DD00FC41ED00BA51FA420850884094C94B7F838A50A8D
:20B76000E51DA50BE51E900CA51FA42085088409F84C78B720ADB7F8A000B108C91FF0298D
:20B78000A00138B108E50A88B108E50BB00620B6B74C78B7A000B108C50BD00DC8B108C5ED
:20B7A0000AD00618A508A40960384CA4B7A5198508A51A850960A000B108C91FF01120D4CA
:20B7C000B720D4B7A000B108C90DD0F520D4B7A508A40960E608D002E60960A900850A85E2
:20B7E0000B20ADB7A000B108C91FF01418F8A50A6901850AA50B6900850B20B6B74CE4B7A0
:20B8000060205BBAA5270021002BA51DA41E0025002B00A000080027A527C949F012A00256
:20B82000B11FC90DF0060021C84C20B8888884336020DBB7205BBAA920A207002CA50AA460
:20B840000B00250026204C494E455320A838D8A517E519A518E51AA8C898A0000006852B4B
:20B8600098002DA52B002300262050414745532055534544A9AD5909F0220026202E2E2E6F
:20B880002046494C454E414D45203DA0AEA109E88A002D0026BAA22000B559092068BA60F8
:20B8A00020ECB87043852D842EA535C9FFF009A436850E840F4CC3B8A000B12D850FC8B1C0
:20B8C0002D850EA901850CA900850DA92C00125007C90DF0114CE8B8A904001A700A001BD5
:20B8E0007006850C840DB8602C03B060A9FF8535009604B0705BAAF051E001D01BA000B1DA
:20B900001FCD1E00D00BC8B11FCD1D00D00318900138A51FA420B860A51FA420C519D0072F
:20B92000C41AD003B8386088852D842EA0FEB12DC90DF004884C2EB9C818D898652D852D85
:20B94000A52E6900A8A52DB81860A517A41838B860A904001A7008853584362045B7B86052
:20B96000A519A41A85008401A517A41885028403602060B900960EB0505420ECB8704F8522
:20B980000084010868852B001B5028A92D00127022AD3D00F00CA9FF0012C90DF030C92C6A
:20B9A000F02C20ECB8852C0868852BA52C50082C03B060A500A40185028403462BB00F8561
:20B9C00008840920B6B7A5088502A5098503A500A40138D8A502E500A503E50190D1B860EE
:20B9E000A527C94DF055A51D850CA51E850DA51F8508A5208509A000B108C91FF028C50DA9
:20BA0000D024C8B108C50CD01D18F8A50C6901850CA50D6900850DA50C910888A50D91086D
:20BA200020B6B74CF6B9A51F8506A5208507A9008505E604E604E60420E0B6A000A51E9143
:20BA40001FC8A51D911FC8AE0108BD0008911FC8E8EC020890F4A90D911F60842900A00656
:20BA6000090027002BA4296084298628A245008A10B1A429A62860C9A1D022205BBAA9205C
:20BA8000A207002CAD0108C903F010D838E903AAA92E002CA95E00212068BAA9A1AA205BCD
:20BAA000BA00AA14B02068BAAD510085406048A27DA9009DD709CA10FA68AA0098D709709E
:20BAC00010AD170AC903D009AD1F0AC9FFF005B860A9A160A9212C03B060AD020AC9FFD034
:20BAE0000DA27DBDD7099D5909CA10F7B860A9008D59092C03B060AD5909D006A9212C03E0
:20BB0000B060A27DBD59099DD709CA10F7B860AD00008D0800AD01008D090060200FBB2081
:20BB200028B5B004000750034CD6B1A508850AA509850B20D4B7A00020D4B7A510F01BB166
:20BB400008C90DD00B20D4B7C000F0D3884C45BBD96900D0E1C8C410D0E52060BB4C1FBB85
:20BB60006C0C00A220009969002039B48610001B5011A92C00122039B4001B70062C03B006
:20BB80002039B4A9FF8D3D002071B92039B4001B2039B420E8BCA9A1850CA9BB850D4C1CAA
:20BBA000BBAD0A008D0800AD0B008D09004CE3B4A9FD853FA220009969002039B486102C50
:20BBC00003B0A92C00122039B4A2200099890070E98611E410B009D8388AE510E903853FFE
:20BBE000001B5011A92C00122039B4001B70062C03B02039B4A9008D3D002071B92039B48E
:20BC0000001B2039B420E8BCA5028512A5038513A927850CA9BC850DA9FF85344C1CBB20BE
:20BC200077BA68684CD6B1A53F2026B370F1A50A8515A50B8516A50885008506A50985016D
:20BC40008507D818A51065088502A50969008503A510F0032062B638D8A512E5108512A548
:20BC600013E9008513A511F02A8504A9008505A5088500A509850120E0B618D8A51265116B
:20BC80008512A51369008513A41188B9890091008810F8A5158508A5168509A5128502A541
:20BCA000138503A002B108C90DD03A205BBA002644A0A001B108AA88B108A88A002520684B
:20BCC000BA18D8A508850069038502A5098501690085032062B638D8A512E9038502A51346
:20BCE000E9008503604CE3B4A21FB569297F9569B589297F9589CA10F160A90220AEBA5059
:20BD0000062077BA4CD6B1001B2039B420DABA2039B44CD6B1001B2039B420F7BA7010A91B
:20BD200002852AA9FF853A2060B92031BE50062077BA4CD6B1A9008D34004C9DB4A9FF4C2E
:20BD400044BDA900853AA902852A001B701B20F7BA70102060B92031BE7008A9008D3400FF
:20BD60004CD6B12077BA4CD6B1A90220AEBA50062077BA4CD6B1A9008D3900001B500DAD8B
:20BD800034008D3900A92C00122039B4A9008D3D002071B92039B4001B2039B42031BE5064
:20BDA000032077BAAD39008D34004CD6B1A900853AA901852A20AEBA50062077BA4CD6B1F2
:20BDC000A9FF853EA90085358536A99985378538001B5031A92C00122039B4A904001A20A8
:20BDE00039B4853584360011C92DD013A904001A2039B485378438A900853E001B50062CA3
:20BE000003B02039B4AD560AC91FF0102031BE50032077BAA9FF8D34004CD6B12051BF50FE
:20BE2000082077BAA9008D5909A9008D34004C23B6A9008D180AA9088D190AA52AC901F040
:20BE40000EA901ACD709C04CD002A9028D050AA9838D0008AD450AD005A53A8D450AA62A5C
:20BE600000C2D709705DA52AC901F05B200FBB2028B5B038A203A000ADD709C94CD00620C3
:20BE8000D4B720D4B7B108C90DF00EE083B0049D0008E820D4B74C85BE20D4B78E020800BE
:20BEA000C5D70970020040700B4C6FBE00C3D7097002B86048A9008D450A00C3D70900DBBF
:20BEC000D709682C03B060AD050AC902F00CA900853EA9018D440A4CE8BEA9028D440AA54A
:20BEE0003ED005A9A14C6DBF00C4D7097002004070F300900008A900001CC900F0AE850467
:20BF0000A53ED033F838AD0408E535AD0308E53690D638A537ED0408A538ED0308908DA060
:20BF200003B90208990008C8CC020890F4CE0208CE0208C604C604A5042026B350034C6D86
:20BF4000BF20E0B9204DB3509FA9D7A0090043B860A900A0088D180A8C190AA9018D440AA2
:20BF6000A9838D0008A20100C2D709500A4800C3D709682C03B060AD050AC902D0034CC762
:20BF8000BE00C4D7097002004070E200900008A900001C8504C900D00500C3D70960F83884
:20BFA000AD0408E535AD0308E53690D538A537ED0408A538ED030890E0C604C604A50420C7
:20BFC00026B370A9A000AE0108BD00089117C8E8EC020890F4A90D9117C8A91F911718D8FB
:20BFE0009865178517A518690085184C81BFFFFFFFFFFFFFFFFFFFFFFFFFFFFFFFFFFF60F3
:00000001FF
